3
-1
10
2
16.0
1
0.0
1.0
e
3
-6
-8
0
-8.0
2
0.0
1.0
e
5
-4
1
0
1
3
3
4
e
7
8
-3
6
68121.0
5
6.0
3.0
e
11
9
0
5
4913000.0
4
4.0
1.0
e
13
5
4
1
6
10
1
6
e
17
1
2
0
6
10
0
11
e
19
-7
-3
7
2086723682451.0
17
15.0
8.0
e
23
-4
1
2
1.0
6
2.0
22.0
e
29
-3
7
2
3
11
27
18
e
31
1
5
12
8.597327096700778e+25
13
3.0
27.0
e
37
-1
-8
3
4
28
3
33
e
41
-4
-5
3
16
15
32
32
e
43
3
-3
1
1.0
2
1
1.0
e
47
9
-10
37
3.078853676798866e+56
1
34.0
38.0
e
53
-9
6
0
18
21
10
11
e
59
4
-6
21
3.5851359670929014e+59
19
25.0
41.0
e
61
-8
10
1
8
9
41
10
e
67
8
-8
1
1.0
56
1
1.0
e
71
-10
-2
34
4.2809716935485026e+82
40
13.0
44.0
e
73
5
5
2
13
61
66
24
e
79
-9
-2
33
1.0921102167170032e+91
54
19.0
77.0
e
83
6
-3
31
1.0271615699927626e+94
77
74.0
80.0
e
89
-4
5
2
19
41
2
70
e
97
-4
-9
5
22
15
89
53
e
101
4
1
4
9
22
93
9
e
