3
-10
10
2
1.0
2
2
1.0
e
5
3
0
3
1
1
4
4
e
7
6
-8
3
4.0
1
5.0
0.0
e
11
-9
-8
3
5.0
6
3
5.0
e
13
-7
3
8
2
5
1
7
e
17
9
1
3
2
10
11
2
e
19
-4
0
13
6.0
9
0.0
0.0
e
23
-7
3
22
3.0
2
14.0
2.0
e
29
10
-8
4
3
19
21
3
e
31
-3
0
23
16.0
22
24.0
22.0
e
37
7
-8
31
17
6
12
17
e
41
-4
-5
7
8
7
22
31
e
43
4
5
27
4.0
27
32.0
4.0
e
47
9
2
0
7.0
6
2.0
13.0
e
53
-3
1
20
16
5
10
21
e
59
-5
1
16
51.0
40
27.0
51.0
e
61
-2
-9
2
19
39
21
50
e
67
3
-5
45
1.0
56
41.0
37.0
e
71
6
-6
54
37.0
36
56.0
47.0
e
73
0
-10
37
28
57
72
28
e
79
2
-2
59
4.0
25
22.0
74.0
e
83
-7
-7
78
57.0
36
78.0
26.0
e
89
8
7
55
6
33
84
38
e
97
-2
2
19
18
92
59
18
e
101
-10
10
92
49
98
7
9
e
