3
6.70000008540228e-06
5
3.099999958067201e-06
7
3.4000004234258085e-06
11
3.000000106112566e-06
13
3.000000106112566e-06
17
3.099999958067201e-06
19
3.2999996619764715e-06
3
6.799999937356915e-06
5
9.500000487605575e-06
7
6.499999471998308e-06
11
7.499999810534064e-06
13
7.499999810534064e-06
17
6.399999620043673e-06
19
8.89999955688836e-06
23
8.69999985297909e-06
29
9.499999578110874e-06
31
9.700000191514846e-06
37
1.1299999641778413e-05
41
8.399999387620483e-06
43
1.0199999451288022e-05
47
8.900000466383062e-06
53
6.70000008540228e-06
59
7.099999493220821e-06
61
7.499999810534064e-06
67
7.599999662488699e-06
71
6.199999916134402e-06
73
8.099999831756577e-06
79
7.599999662488699e-06
83
5.899999450775795e-06
89
6.100000064179767e-06
97
6.8999997893115506e-06
101
7.999999979801942e-06
103
7.900000127847306e-06
107
1.8700000509852543e-05
109
2.5999999706982635e-05
113
8.300000445160549e-06
127
7.999999979801942e-06
131
6.8999997893115506e-06
137
8.399999387620483e-06
139
1.1099999937869143e-05
149
6.799999937356915e-06
151
8.199999683711212e-06
157
9.40000063565094e-06
163
8.200000593205914e-06
167
1.0600000678095967e-05
173
7.699999514443334e-06
179
7.499999810534064e-06
181
1.1399999493733048e-05
191
7.499999810534064e-06
193
8.900000466383062e-06
197
9.200000022246968e-06
199
9.699999282020144e-06
211
1.0099999599333387e-05
223
8.099999831756577e-06
227
1.160000010713702e-05
229
6.50000038149301e-06
233
8.69999985297909e-06
239
7.599999662488699e-06
241
6.50000038149301e-06
251
7.900000127847306e-06
257
8.69999985297909e-06
263
1.720000000204891e-05
269
1.1899999663000926e-05
271
1.249999968422344e-05
277
1.52000002344721e-05
281
1.0800000382005237e-05
283
1.0599999768601265e-05
293
1.2700000297627412e-05
307
1.0700000530050602e-05
311
1.2999999853491317e-05
313
8.89999955688836e-06
317
1.4100000043981709e-05
331
8.300000445160549e-06
337
1.340000017080456e-05
347
1.3799999578623101e-05
349
1.3099999705445953e-05
353
1.4700000065204222e-05
359
1.5700000403739978e-05
367
9.299999874201603e-06
373
1.3699999726668466e-05
379
9.899999895424116e-06
383
1.1500000255182385e-05
389
8.600000001024455e-06
397
8.600000001024455e-06
401
1.0100000508828089e-05
409
1.0099999599333387e-05
419
1.140000040322775e-05
421
7.999999979801942e-06
431
8.89999955688836e-06
433
1.0300000212737359e-05
439
1.1100000847363845e-05
443
7.599999662488699e-06
449
1.0400000064691994e-05
457
1.2900000001536682e-05
461
8.69999985297909e-06
463
6.600000233447645e-06
467
8.900000466383062e-06
479
1.2200000128359534e-05
487
8.799999704933725e-06
491
1.2500000593718141e-05
499
6.299999768089037e-06
503
7.499999810534064e-06
509
7.700000423938036e-06
521
9.299999874201603e-06
523
8.89999955688836e-06
541
5.7999995988211595e-06
547
7.300000106624793e-06
557
8.50000014906982e-06
563
7.300000106624793e-06
569
8.300000445160549e-06
571
8.100000741251279e-06
577
1.1300000551273115e-05
587
9.60000033956021e-06
593
1.249999968422344e-05
599
8.800000614428427e-06
601
1.0000000656873453e-05
607
8.300000445160549e-06
613
1.2299999980314169e-05
617
1.1399999493733048e-05
619
1.1500000255182385e-05
631
9.900000804918818e-06
641
1.2999999853491317e-05
643
7.900000127847306e-06
647
4.200000148557592e-06
653
5.7999995988211595e-06
659
4.100000296602957e-06
661
4.300000000512227e-06
673
4.499999704421498e-06
677
5.099999725644011e-06
683
3.899999683198985e-06
691
4.499999704421498e-06
701
6.199999916134402e-06
709
3.6999999792897142e-06
719
3.600000127335079e-06
727
4.499999704421498e-06
733
4.300000000512227e-06
739
3.499999365885742e-06
743
4.399999852466863e-06
751
4.70000031782547e-06
757
4.200000148557592e-06
761
3.8000007407390513e-06
769
3.600000127335079e-06
773
3.600000127335079e-06
787
4.400000761961564e-06
797
4.999999873689376e-06
809
4.100000296602957e-06
811
4.800000169780105e-06
821
6.399999620043673e-06
823
4.19999923906289e-06
827
2.209999911428895e-05
829
6.400000529538374e-06
839
3.6999999792897142e-06
853
3.6999999792897142e-06
857
3.899999683198985e-06
859
4.000000444648322e-06
863
4.100000296602957e-06
877
3.99999953515362e-06
881
3.5999992178403772e-06
883
4.800000169780105e-06
887
4.300000000512227e-06
907
4.699999408330768e-06
911
3.5999992178403772e-06
919
3.899999683198985e-06
929
4.999999873689376e-06
937
3.600000127335079e-06
941
4.5000006139162e-06
947
3.499999365885742e-06
953
1.06999996205559e-05
967
1.5600000551785342e-05
971
1.2200000128359534e-05
977
1.539999993838137e-05
983
1.3299999409355223e-05
991
9.700000191514846e-06
997
8.799999704933725e-06
1009
1.1299999641778413e-05
1013
9.399999726156238e-06
1019
1.4100000043981709e-05
1021
1.1899999663000926e-05
1031
1.0199999451288022e-05
1033
1.0200000360782724e-05
1039
9.800000043469481e-06
1049
1.0400000064691994e-05
1051
1.1099999937869143e-05
1061
1.2099999366910197e-05
1063
6.70000008540228e-06
1069
1.06999996205559e-05
1087
8.799999704933725e-06
1091
1.2700000297627412e-05
1093
9.100000170292333e-06
1097
9.800000043469481e-06
1103
1.0599999768601265e-05
1109
7.900000127847306e-06
1117
1.1299999641778413e-05
1123
9.40000063565094e-06
1129
9.399999726156238e-06
1151
8.600000001024455e-06
1153
1.1500000255182385e-05
1163
1.0900000233959872e-05
1171
9.300000783696305e-06
1181
9.999999747378752e-06
1187
1.0400000064691994e-05
1193
7.099999493220821e-06
1201
7.100000402715523e-06
1213
4.399999852466863e-06
1217
8.69999985297909e-06
1223
1.2100000276404899e-05
1229
1.0400000064691994e-05
1231
9.79999913397478e-06
1237
1.0800000382005237e-05
1249
1.0199999451288022e-05
1259
1.049999991664663e-05
1277
7.0000005507608876e-06
1279
9.700000191514846e-06
1283
9.900000804918818e-06
1289
8.69999985297909e-06
1291
9.300000783696305e-06
1297
8.50000014906982e-06
1301
8.099999831756577e-06
1303
6.70000008540228e-06
1307
4.900000021734741e-06
1319
6.000000212225132e-06
1321
8.799999704933725e-06
1327
6.300000677583739e-06
1361
6.199999916134402e-06
1367
7.499999810534064e-06
1373
6.8999997893115506e-06
1381
5.899999450775795e-06
1399
6.300000677583739e-06
1409
7.300000106624793e-06
1423
5.100000635138713e-06
1427
5.700000656361226e-06
1429
7.600000571983401e-06
1433
5.700000656361226e-06
1439
4.399999852466863e-06
1447
5.599999894911889e-06
1451
5.7999995988211595e-06
1453
7.699999514443334e-06
1459
6.999999641266186e-06
1471
6.299999768089037e-06
1481
1.5500000699830707e-05
1483
4.5000006139162e-06
1487
5.700000656361226e-06
1489
4.900000021734741e-06
1493
4.800000169780105e-06
1499
3.99999953515362e-06
1511
1.0400000064691994e-05
1523
9.700000191514846e-06
1531
7.100000402715523e-06
1543
1.1699999959091656e-05
1549
8.89999955688836e-06
1553
9.000000318337698e-06
1559
9.60000033956021e-06
1567
9.700000191514846e-06
1571
1.1000000085914508e-05
1579
7.499999810534064e-06
1583
8.999999408842996e-06
1597
1.120000069931848e-05
1601
1.1099999937869143e-05
1607
1.1299999641778413e-05
1609
7.800000275892671e-06
1613
6.599999323952943e-06
1619
4.5000006139162e-06
1621
7.699999514443334e-06
1627
7.3999999585794285e-06
1637
6.299999768089037e-06
1657
4.800000169780105e-06
1663
4.999999873689376e-06
1667
5.000000783184078e-06
1669
6.100000064179767e-06
1693
4.499999704421498e-06
1697
6.099999154685065e-06
1699
4.799999260285404e-06
1709
4.499999704421498e-06
1721
5.100000635138713e-06
1723
4.499999704421498e-06
1733
5.599999894911889e-06
1741
4.70000031782547e-06
1747
3.7999998312443495e-06
1753
4.699999408330768e-06
1759
5.000000783184078e-06
1777
5.200000487093348e-06
1783
5.4000001910026185e-06
1787
5.100000635138713e-06
1789
5.099999725644011e-06
1801
4.5000006139162e-06
1811
4.499999704421498e-06
1823
6.299999768089037e-06
1831
4.300000000512227e-06
1847
4.600000465870835e-06
1861
3.600000127335079e-06
1867
6.399999620043673e-06
1871
5.300000339047983e-06
1873
3.7999998312443495e-06
1877
3.4000004234258085e-06
1879
5.100000635138713e-06
1889
4.200000148557592e-06
1901
4.499999704421498e-06
1907
3.1999998100218363e-06
1913
4.800000169780105e-06
1931
5.4000001910026185e-06
1933
4.399999852466863e-06
1949
4.000000444648322e-06
1951
5.2999994295532815e-06
1973
3.899999683198985e-06
1979
1.1699999959091656e-05
1987
1.1299999641778413e-05
1993
1.8400000044493936e-05
1997
1.2800000149582047e-05
1999
1.52000002344721e-05
2003
1.0700000530050602e-05
2011
1.0799999472510535e-05
2017
9.399999726156238e-06
2027
7.200000254670158e-06
2029
1.4000000192027073e-05
2039
1.6699999832781032e-05
2053
1.609999981155852e-05
2063
1.0900000233959872e-05
2069
1.049999991664663e-05
2081
1.6900000446185004e-05
2083
1.4299999747890979e-05
2087
3.240000023652101e-05
2089
1.6599999980826396e-05
2099
1.4000000192027073e-05
2111
1.8199999431089964e-05
2113
1.6699999832781032e-05
2129
8.700000762473792e-06
2131
1.9699999938893598e-05
2137
1.089999932446517e-05
2141
1.120000069931848e-05
2143
9.599999430065509e-06
2153
1.3799999578623101e-05
2161
1.7899999875226058e-05
2179
1.810000048863003e-05
2203
1.2600000445672777e-05
2207
1.2800000149582047e-05
2213
2.3999999939405825e-05
2221
9.599999430065509e-06
2237
9.200000022246968e-06
2239
1.1499999345687684e-05
2243
8.199999683711212e-06
2251
1.650000012887176e-05
2267
1.5800000255694613e-05
2269
1.2299999980314169e-05
2273
1.7400000615452882e-05
2281
1.5300000086426735e-05
2287
1.4400000509340316e-05
2293
1.500000053056283e-05
2297
1.9799999790848233e-05
2309
1.9499999325489625e-05
2311
1.5999999959603883e-05
2333
1.7500000467407517e-05
2339
2.1500000002561137e-05
2341
1.4100000043981709e-05
2347
1.6399999367422424e-05
2351
1.4799999917158857e-05
2357
9.399999726156238e-06
2371
1.6799999684735667e-05
2377
1.0800000382005237e-05
2381
1.4199999895936344e-05
2383
1.359999987471383e-05
2389
9.999999747378752e-06
2393
9.900000804918818e-06
2399
1.2200000128359534e-05
2411
1.2299999980314169e-05
2417
1.6200000573007856e-05
2423
1.2000000424450263e-05
2437
1.4299999747890979e-05
2441
1.7700000171316788e-05
2447
2.0200000108161476e-05
2459
1.1199999789823778e-05
2467
1.919999976962572e-05
2473
1.4999999621068127e-05
2477
1.3299999409355223e-05
2503
1.1500000255182385e-05
2521
1.880000036180718e-05
2531
1.52000002344721e-05
2539
1.2800000149582047e-05
2543
1.6599999980826396e-05
2549
1.5700000403739978e-05
2551
1.4799999917158857e-05
2557
1.1099999937869143e-05
2579
1.1300000551273115e-05
2591
7.199999345175456e-06
2593
7.800000275892671e-06
2609
8.199999683711212e-06
2617
6.100000064179767e-06
2621
4.70000031782547e-06
2633
6.000000212225132e-06
2647
4.5000006139162e-06
2657
3.6999999792897142e-06
2659
4.799999260285404e-06
2663
4.900000021734741e-06
2671
6.199999916134402e-06
2677
4.999999873689376e-06
2683
6.100000064179767e-06
2687
4.899999112240039e-06
2689
4.399999852466863e-06
2693
3.99999953515362e-06
2699
4.000000444648322e-06
2707
4.70000031782547e-06
2711
4.600000465870835e-06
2713
5.199999577598646e-06
2719
5.2999994295532815e-06
2729
4.300000000512227e-06
2731
3.6999999792897142e-06
2741
5.200000487093348e-06
2749
5.4000001910026185e-06
2753
5.800000508315861e-06
2767
3.1999998100218363e-06
2777
5.100000635138713e-06
2789
4.300000000512227e-06
2791
4.900000021734741e-06
2797
4.699999408330768e-06
2801
4.200000148557592e-06
2803
3.1999998100218363e-06
2819
4.200000148557592e-06
2833
2.8000004022032954e-06
2837
4.499999704421498e-06
2843
3.2999996619764715e-06
2851
4.999999873689376e-06
2857
4.300000000512227e-06
2861
3.3999995139311068e-06
2879
6.199999916134402e-06
2887
4.900000021734741e-06
2897
4.100000296602957e-06
2903
6.999999641266186e-06
2909
5.499999133462552e-06
2917
5.000000783184078e-06
2927
3.4000004234258085e-06
2939
4.999999873689376e-06
2953
4.000000444648322e-06
2957
4.900000021734741e-06
2963
4.300000000512227e-06
2969
5.800000508315861e-06
2971
4.499999704421498e-06
2999
5.000000783184078e-06
3001
4.399999852466863e-06
3011
4.400000761961564e-06
3019
4.900000021734741e-06
3023
3.6999999792897142e-06
3037
5.500000042957254e-06
3041
4.599999556376133e-06
3049
3.2999996619764715e-06
3061
6.999999641266186e-06
3067
1.0300000212737359e-05
3079
1.0400000064691994e-05
3083
1.1699999959091656e-05
3089
2.3099999452824704e-05
3109
1.7800000023271423e-05
3119
1.340000017080456e-05
3121
1.3800000488117803e-05
3137
1.1899999663000926e-05
3163
1.4000000192027073e-05
3167
1.5900000107649248e-05
3169
1.1899999663000926e-05
3181
1.920000067912042e-05
3187
1.449999945180025e-05
3191
9.60000033956021e-06
3203
1.1199999789823778e-05
3209
1.1299999641778413e-05
3217
1.5299999176932033e-05
3221
2.0200000108161476e-05
3229
1.6899999536690302e-05
3251
1.2399999832268804e-05
3253
1.4600000213249587e-05
3257
1.3500000022759195e-05
3259
1.249999968422344e-05
3271
6.50000038149301e-06
3299
1.140000040322775e-05
3301
1.629999951546779e-05
3307
1.3900000340072438e-05
3313
1.3800000488117803e-05
3319
2.0000000404252205e-05
3323
1.3300000318849925e-05
3329
1.4600000213249587e-05
3331
1.2000000424450263e-05
3343
8.700000762473792e-06
3347
1.359999987471383e-05
3359
1.7700000171316788e-05
3361
1.4899999769113492e-05
3371
1.6899999536690302e-05
3373
1.4000000192027073e-05
3389
9.200000022246968e-06
3391
1.1500000255182385e-05
3407
8.600000001024455e-06
3413
9.200000022246968e-06
3433
8.69999985297909e-06
3449
1.0400000064691994e-05
3457
8.999999408842996e-06
3461
8.400000297115184e-06
3463
7.900000127847306e-06
3467
7.700000423938036e-06
3469
6.100000064179767e-06
3491
7.199999345175456e-06
3499
9.200000022246968e-06
3511
6.8999997893115506e-06
3517
8.400000297115184e-06
3527
7.3999999585794285e-06
3529
9.60000033956021e-06
3533
6.100000064179767e-06
3539
4.999999873689376e-06
3541
9.399999726156238e-06
3547
8.099999831756577e-06
3557
6.499999471998308e-06
3559
9.200000022246968e-06
3571
1.3500000022759195e-05
3581
9.999999747378752e-06
3583
1.1699999959091656e-05
3593
1.4600000213249587e-05
3607
1.449999945180025e-05
3613
1.249999968422344e-05
3617
1.4799999917158857e-05
3623
1.629999951546779e-05
3631
2.029999996011611e-05
3637
1.7700000171316788e-05
3643
1.8699999600357842e-05
3659
1.3299999409355223e-05
3671
9.100000170292333e-06
3673
1.2200000128359534e-05
3677
1.1000000085914508e-05
3691
2.0200000108161476e-05
3697
1.52000002344721e-05
3701
1.4700000065204222e-05
3709
1.2600000445672777e-05
3719
1.3099999705445953e-05
3727
1.609999981155852e-05
3733
2.029999996011611e-05
3739
1.2900000001536682e-05
3761
1.4799999917158857e-05
3767
1.7700000171316788e-05
3769
1.7600000319362152e-05
3779
1.4600000213249587e-05
3793
7.5000007200287655e-06
3797
6.50000038149301e-06
3803
4.499999704421498e-06
3821
5.300000339047983e-06
3823
4.399999852466863e-06
3833
3.4000004234258085e-06
3847
5.599999894911889e-06
3851
3.99999953515362e-06
3853
5.699999746866524e-06
3863
5.600000804406591e-06
3877
4.900000021734741e-06
3881
5.700000656361226e-06
3889
4.399999852466863e-06
3907
5.100000635138713e-06
3911
5.7999995988211595e-06
3917
3.9000005926936865e-06
3919
5.500000042957254e-06
3923
4.70000031782547e-06
3929
5.200000487093348e-06
3931
5.2999994295532815e-06
3943
6.000000212225132e-06
3947
1.2200000128359534e-05
3967
1.939999947353499e-05
3989
1.1800000720540993e-05
4001
1.0599999768601265e-05
4003
1.8699999600357842e-05
4007
1.0400000064691994e-05
4013
1.249999968422344e-05
4019
2.210000002378365e-05
4021
7.700000423938036e-06
4027
6.299999768089037e-06
4049
4.499999704421498e-06
4051
4.70000031782547e-06
4057
5.899999450775795e-06
4073
4.000000444648322e-06
4079
6.70000008540228e-06
4091
5.599999894911889e-06
4093
6.70000008540228e-06
4099
4.5000006139162e-06
4111
5.4000001910026185e-06
4127
4.800000169780105e-06
4129
3.5999992178403772e-06
4133
5.2999994295532815e-06
4139
4.800000169780105e-06
4153
6.000000212225132e-06
4157
5.099999725644011e-06
4159
4.800000169780105e-06
4177
6.299999768089037e-06
4201
6.000000212225132e-06
4211
5.300000339047983e-06
4217
3.6999999792897142e-06
4219
3.1999998100218363e-06
4229
6.100000064179767e-06
4231
4.600000465870835e-06
4241
8.199999683711212e-06
4243
1.2600000445672777e-05
4253
1.0799999472510535e-05
4259
1.1999999514955562e-05
4261
1.3799999578623101e-05
4271
1.720000000204891e-05
4273
1.3199999557400588e-05
4283
1.700000029813964e-05
4289
9.099999260797631e-06
4297
1.4900000678608194e-05
4327
1.7600000319362152e-05
4337
1.7800000023271423e-05
4339
1.4199999895936344e-05
4349
2.1500000002561137e-05
4357
1.8399999134999234e-05
4363
9.299999874201603e-06
4373
1.9500000234984327e-05
4391
1.449999945180025e-05
4397
9.200000022246968e-06
4409
1.6199999663513154e-05
4421
1.340000017080456e-05
4423
2.010000025620684e-05
4441
1.5600000551785342e-05
4447
1.539999993838137e-05
4451
1.630000042496249e-05
4457
1.320000046689529e-05
4463
1.629999951546779e-05
4481
1.609999981155852e-05
4483
7.999999979801942e-06
4493
1.1899999663000926e-05
4507
1.1599999197642319e-05
4513
6.099999154685065e-06
4517
5.899999450775795e-06
4519
4.300000000512227e-06
4523
6.70000008540228e-06
4547
6.199999916134402e-06
4549
4.900000021734741e-06
4561
3.000000106112566e-06
4567
6.199999916134402e-06
4583
4.70000031782547e-06
4591
6.8999997893115506e-06
4597
6.000000212225132e-06
4603
4.70000031782547e-06
4621
4.5000006139162e-06
4637
5.699999746866524e-06
4639
4.800000169780105e-06
4643
5.500000042957254e-06
4649
4.599999556376133e-06
4651
5.200000487093348e-06
4657
4.999999873689376e-06
4663
4.200000148557592e-06
4673
3.899999683198985e-06
4679
5.099999725644011e-06
4691
4.70000031782547e-06
4703
4.200000148557592e-06
4721
3.9000005926936865e-06
4723
6.70000008540228e-06
4729
4.599999556376133e-06
4733
3.7999998312443495e-06
4751
5.7999995988211595e-06
4759
5.7999995988211595e-06
4783
5.099999725644011e-06
4787
4.999999873689376e-06
4789
6.799999937356915e-06
4793
3.7999998312443495e-06
4799
4.999999873689376e-06
4801
4.100000296602957e-06
4813
6.100000064179767e-06
4817
4.800000169780105e-06
4831
4.600000465870835e-06
4861
4.200000148557592e-06
4871
4.399999852466863e-06
4877
4.400000761961564e-06
4889
7.79999936639797e-06
4903
5.899999450775795e-06
4909
4.999999873689376e-06
4919
1.049999991664663e-05
4931
1.7299999854003545e-05
4933
1.4299999747890979e-05
4937
1.6599999980826396e-05
4943
8.50000014906982e-06
4951
1.539999993838137e-05
4957
9.299999874201603e-06
4967
1.0000000656873453e-05
4969
1.4700000065204222e-05
4973
1.3300000318849925e-05
4987
1.609999981155852e-05
4993
1.4399999599845614e-05
4999
1.0799999472510535e-05
5003
1.3699999726668466e-05
5009
9.099999260797631e-06
5011
9.000000318337698e-06
5021
9.299999874201603e-06
5023
3.3000005714711733e-06
5039
5.300000339047983e-06
5051
5.899999450775795e-06
5059
5.7999995988211595e-06
5077
4.400000761961564e-06
5081
5.199999577598646e-06
5087
6.000000212225132e-06
5099
4.300000000512227e-06
5101
3.4000004234258085e-06
5107
6.799999937356915e-06
5113
4.899999112240039e-06
5119
5.599999894911889e-06
5147
4.399999852466863e-06
5153
4.699999408330768e-06
5167
4.900000021734741e-06
5171
5.200000487093348e-06
5179
5.300000339047983e-06
5189
5.200000487093348e-06
5197
4.300000000512227e-06
5209
3.3000005714711733e-06
5227
5.700000656361226e-06
5231
4.200000148557592e-06
5233
5.300000339047983e-06
5237
5.199999577598646e-06
5261
4.70000031782547e-06
5273
5.599999894911889e-06
5279
5.300000339047983e-06
5281
1.1000000085914508e-05
5297
1.1000000085914508e-05
5303
1.2299999980314169e-05
5309
5.99999930273043e-06
5323
4.800000169780105e-06
5333
4.999999873689376e-06
5347
4.499999704421498e-06
5351
6.70000008540228e-06
5381
6.000000212225132e-06
5387
5.7999995988211595e-06
5393
4.999999873689376e-06
5399
4.5000006139162e-06
5407
4.999999873689376e-06
5413
4.19999923906289e-06
5417
5.599999894911889e-06
5419
5.099999725644011e-06
5431
4.200000148557592e-06
5437
4.900000021734741e-06
5441
4.200000148557592e-06
5443
4.000000444648322e-06
5449
3.7999998312443495e-06
5471
5.699999746866524e-06
5477
6.100000064179767e-06
5479
6.299999768089037e-06
5483
5.300000339047983e-06
5501
5.100000635138713e-06
5503
4.900000021734741e-06
5507
4.999999873689376e-06
5519
4.599999556376133e-06
5521
4.70000031782547e-06
5527
1.4700000065204222e-05
5531
4.799999260285404e-06
5557
4.900000021734741e-06
5563
5.099999725644011e-06
5569
4.100000296602957e-06
5573
5.699999746866524e-06
5581
3.9000005926936865e-06
5591
4.5000006139162e-06
5623
5.199999577598646e-06
5639
1.049999991664663e-05
5641
1.4799999917158857e-05
5647
1.1100000847363845e-05
5651
1.8200000340584666e-05
5653
1.4899999769113492e-05
5657
9.899999895424116e-06
5659
1.4100000043981709e-05
5669
9.899999895424116e-06
5683
9.800000043469481e-06
5689
1.7500000467407517e-05
5693
7.3999999585794285e-06
5701
6.299999768089037e-06
5711
7.800000275892671e-06
5717
4.499999704421498e-06
5737
5.699999746866524e-06
5741
4.300000000512227e-06
5743
5.599999894911889e-06
5749
5.699999746866524e-06
5779
6.499999471998308e-06
5783
5.199999577598646e-06
5791
4.70000031782547e-06
5801
1.9400000383029692e-05
5807
4.800000169780105e-06
5813
5.7999995988211595e-06
5821
5.4000001910026185e-06
5827
4.300000000512227e-06
5839
1.1799999811046291e-05
5843
7.999999979801942e-06
5849
5.4000001910026185e-06
5851
7.200000254670158e-06
5857
6.100000064179767e-06
5861
5.99999930273043e-06
5867
6.999999641266186e-06
5869
1.2200000128359534e-05
5879
5.599999894911889e-06
5881
6.200000825629104e-06
5897
8.200000593205914e-06
5903
8.69999985297909e-06
5923
9.200000022246968e-06
5927
7.800000275892671e-06
5939
4.999999873689376e-06
5953
8.800000614428427e-06
5981
5.9000003602704965e-06
5987
9.499999578110874e-06
6007
5.700000656361226e-06
6011
7.3999999585794285e-06
6029
5.500000042957254e-06
6037
7.999999979801942e-06
6043
7.200000254670158e-06
6047
6.70000008540228e-06
6053
8.400000297115184e-06
6067
8.600000001024455e-06
6073
8.69999985297909e-06
6079
7.300000106624793e-06
6089
4.70000031782547e-06
6091
6.199999916134402e-06
6101
7.300000106624793e-06
6113
8.499999239575118e-06
6121
6.000000212225132e-06
6131
6.8999997893115506e-06
6133
6.200000825629104e-06
6143
6.299999768089037e-06
6151
5.2999994295532815e-06
6163
6.100000064179767e-06
6173
8.69999985297909e-06
6197
5.500000042957254e-06
6199
9.200000022246968e-06
6203
4.999999873689376e-06
6211
1.320000046689529e-05
6217
8.199999683711212e-06
6221
7.3999999585794285e-06
6229
6.200000825629104e-06
6247
1.4200000805431046e-05
6257
1.449999945180025e-05
6263
1.160000010713702e-05
6269
1.3300000318849925e-05
6271
1.5499999790336005e-05
6277
1.4299999747890979e-05
6287
1.8599999748403206e-05
6299
1.9600000086938962e-05
6301
1.3199999557400588e-05
6311
2.3399999918183312e-05
6317
1.4899999769113492e-05
6323
8.999999408842996e-06
6329
1.1199999789823778e-05
6337
1.9699999938893598e-05
6343
1.1999999514955562e-05
6353
1.4000000192027073e-05
6359
1.2700000297627412e-05
6361
1.4700000065204222e-05
6367
1.4400000509340316e-05
6373
1.6700000742275734e-05
6379
7.79999936639797e-06
6389
1.6699999832781032e-05
6397
1.6400000276917126e-05
6421
2.3799999326001853e-05
6427
8.89999955688836e-06
6449
2.0700000277429353e-05
6451
1.1699999959091656e-05
6469
6.399999620043673e-06
6473
5.099999725644011e-06
6481
4.19999923906289e-06
6491
6.50000038149301e-06
6521
7.300000106624793e-06
6529
6.600000233447645e-06
6547
5.399999281507917e-06
6551
5.200000487093348e-06
6553
4.399999852466863e-06
6563
5.099999725644011e-06
6569
7.300000106624793e-06
6571
1.049999991664663e-05
6577
8.200000593205914e-06
6581
4.499999704421498e-06
6599
5.4000001910026185e-06
6607
6.50000038149301e-06
6619
5.200000487093348e-06
6637
5.699999746866524e-06
6653
4.599999556376133e-06
6659
4.5000006139162e-06
6661
6.100000064179767e-06
6673
4.699999408330768e-06
6679
5.100000635138713e-06
6689
5.300000339047983e-06
6691
5.4000001910026185e-06
6701
4.999999873689376e-06
6703
5.9000003602704965e-06
6709
4.300000000512227e-06
6719
4.800000169780105e-06
6733
5.100000635138713e-06
6737
5.4000001910026185e-06
6761
4.799999260285404e-06
6763
6.70000008540228e-06
6779
3.3999995139311068e-06
6781
5.300000339047983e-06
6791
4.300000000512227e-06
6793
4.5000006139162e-06
6803
4.300000000512227e-06
6823
6.399999620043673e-06
6827
4.200000148557592e-06
6829
5.099999725644011e-06
6833
5.4000001910026185e-06
6841
4.499999704421498e-06
6857
4.600000465870835e-06
6863
4.999999873689376e-06
6869
4.900000021734741e-06
6871
3.099999958067201e-06
6883
6.000000212225132e-06
6899
4.70000031782547e-06
6907
1.9899999642802868e-05
6911
4.999999873689376e-06
6917
5.500000042957254e-06
6947
5.699999746866524e-06
6949
5.599999894911889e-06
6959
5.4000001910026185e-06
6961
5.2999994295532815e-06
6967
4.200000148557592e-06
6971
5.800000508315861e-06
6977
5.699999746866524e-06
6983
4.699999408330768e-06
6991
5.200000487093348e-06
6997
4.70000031782547e-06
7001
4.100000296602957e-06
7013
5.700000656361226e-06
7019
5.699999746866524e-06
7027
4.70000031782547e-06
7039
4.300000000512227e-06
7043
6.000000212225132e-06
7057
4.499999704421498e-06
7069
5.200000487093348e-06
7079
1.4000000192027073e-05
7103
1.4799999917158857e-05
7109
1.340000017080456e-05
7121
1.919999976962572e-05
7127
1.0200000360782724e-05
7129
1.2299999980314169e-05
7151
1.5299999176932033e-05
7159
1.1500000255182385e-05
7177
1.4000000192027073e-05
7187
7.999999979801942e-06
7193
9.299999874201603e-06
7207
1.1000000085914508e-05
7211
1.809999957913533e-05
7213
1.359999987471383e-05
7219
1.97000008483883e-05
7229
4.890000036539277e-05
7237
8.69999985297909e-06
7243
1.1099999937869143e-05
7247
8.300000445160549e-06
7253
7.699999514443334e-06
7283
7.099999493220821e-06
7297
7.0000005507608876e-06
7307
6.399999620043673e-06
7309
7.800000275892671e-06
7321
1.269999938813271e-05
7331
7.800000275892671e-06
7333
7.599999662488699e-06
7349
6.799999937356915e-06
7351
6.8999997893115506e-06
7369
6.399999620043673e-06
7393
8.299999535665847e-06
7411
6.799999937356915e-06
7417
9.999999747378752e-06
7433
1.6699999832781032e-05
7451
1.1399999493733048e-05
7457
1.7500000467407517e-05
7459
1.1999999514955562e-05
7477
1.8399999134999234e-05
7481
1.5699999494245276e-05
7487
1.630000042496249e-05
7489
1.6599999980826396e-05
7499
1.1199999789823778e-05
7507
1.4999999621068127e-05
7517
1.140000040322775e-05
7523
2.029999996011611e-05
7529
1.340000017080456e-05
7537
1.7299999854003545e-05
7541
1.630000042496249e-05
7547
1.1999999514955562e-05
7549
1.4999999621068127e-05
7559
1.2399999832268804e-05
7561
2.1899999410379678e-05
7573
1.539999993838137e-05
7577
1.7299999854003545e-05
7583
1.7499999557912815e-05
7589
6.499999471998308e-06
7591
6.000000212225132e-06
7603
9.499999578110874e-06
7607
8.69999985297909e-06
7621
6.799999937356915e-06
7639
4.800000169780105e-06
7643
5.500000042957254e-06
7649
4.300000000512227e-06
7669
5.399999281507917e-06
7673
4.5000006139162e-06
7681
5.699999746866524e-06
7687
3.600000127335079e-06
7691
7.40000086807413e-06
7699
4.800000169780105e-06
7703
8.400000297115184e-06
7717
8.700000762473792e-06
7723
7.0000005507608876e-06
7727
8.800000614428427e-06
7741
1.3600000784208532e-05
7753
1.0300000212737359e-05
7757
1.0100000508828089e-05
7759
1.2500000593718141e-05
7789
1.2900000001536682e-05
7793
1.5700000403739978e-05
7817
8.800000614428427e-06
7823
5.099999725644011e-06
7829
8.999999408842996e-06
7841
5.899999450775795e-06
7853
5.7999995988211595e-06
7867
4.599999556376133e-06
7873
4.600000465870835e-06
7877
5.599999894911889e-06
7879
3.5000002753804438e-06
7883
5.500000042957254e-06
7901
6.299999768089037e-06
7907
4.19999923906289e-06
7919
4.599999556376133e-06
7927
3.7999998312443495e-06
7933
4.999999873689376e-06
7937
4.000000444648322e-06
7949
3.899999683198985e-06
7951
6.300000677583739e-06
7963
6.199999916134402e-06
7993
6.799999937356915e-06
8009
4.599999556376133e-06
8011
4.200000148557592e-06
8017
4.800000169780105e-06
8039
4.599999556376133e-06
8053
4.900000021734741e-06
8059
4.800000169780105e-06
8069
4.499999704421498e-06
8081
9.899999895424116e-06
8087
9.299999874201603e-06
8089
5.2999994295532815e-06
8093
8.799999704933725e-06
8101
7.79999936639797e-06
8111
6.8999997893115506e-06
8117
7.499999810534064e-06
8123
9.60000033956021e-06
8147
7.2999991971300915e-06
8161
7.800000275892671e-06
8167
6.300000677583739e-06
8171
5.899999450775795e-06
8179
3.899999683198985e-06
8191
4.000000444648322e-06
8209
1.3099999705445953e-05
8219
2.0700000277429353e-05
8221
1.5800000255694613e-05
8231
2.0599999515980016e-05
8233
1.2200000128359534e-05
8237
1.0300000212737359e-05
8243
1.559999964229064e-05
8263
1.4199999895936344e-05
8269
1.5699999494245276e-05
8273
1.2900000001536682e-05
8287
1.5300000086426735e-05
8291
1.0200000360782724e-05
8293
1.500000053056283e-05
8297
1.83000001925393e-05
8311
1.2500000593718141e-05
8317
1.3500000022759195e-05
8329
1.4399999599845614e-05
8353
1.849999989644857e-05
8363
7.599999662488699e-06
8369
7.200000254670158e-06
8377
7.599999662488699e-06
8387
1.4700000065204222e-05
8389
1.880000036180718e-05
8419
9.40000063565094e-06
8423
5.800000508315861e-06
8429
8.300000445160549e-06
8431
7.099999493220821e-06
8443
8.800000614428427e-06
8447
8.50000014906982e-06
8461
8.799999704933725e-06
8467
8.099999831756577e-06
8501
6.8999997893115506e-06
8513
6.400000529538374e-06
8521
1.1500000255182385e-05
8527
9.099999260797631e-06
8537
8.69999985297909e-06
8539
6.900000698806252e-06
8543
5.100000635138713e-06
8563
8.300000445160549e-06
8573
7.800000275892671e-06
8581
7.800000275892671e-06
8597
6.199999916134402e-06
8599
8.600000001024455e-06
8609
8.300000445160549e-06
8623
7.999999979801942e-06
8627
5.99999930273043e-06
8629
7.599999662488699e-06
8641
4.999999873689376e-06
8647
6.200000825629104e-06
8663
8.800000614428427e-06
8669
9.700000191514846e-06
8677
8.400000297115184e-06
8681
9.099999260797631e-06
8689
8.50000014906982e-06
8693
7.0000005507608876e-06
8699
7.499999810534064e-06
8707
7.300000106624793e-06
8713
9.999999747378752e-06
8719
7.900000127847306e-06
8731
5.599999894911889e-06
8737
7.600000571983401e-06
8741
7.3999999585794285e-06
8747
6.800000846851617e-06
8753
7.999999979801942e-06
8761
8.000000889296643e-06
8779
8.300000445160549e-06
8783
8.89999955688836e-06
8803
9.299999874201603e-06
8807
1.0400000064691994e-05
8819
8.300000445160549e-06
8821
6.299999768089037e-06
8831
7.900000127847306e-06
8837
7.2999991971300915e-06
8839
7.40000086807413e-06
8849
7.40000086807413e-06
8861
6.8999997893115506e-06
8863
8.800000614428427e-06
8867
7.300000106624793e-06
8887
4.399999852466863e-06
8893
5.300000339047983e-06
8923
4.19999923906289e-06
8929
4.900000021734741e-06
8933
3.7999998312443495e-06
8941
5.099999725644011e-06
8951
1.4299999747890979e-05
8963
0.00014999999984866008
